Using the helper functions • arcpy
…
Tokens are also supported by arcpy. If you have the
tibble package installed, you can read geometry tokens as
list columns.

da_read(fc, fields = c("OID@", "NAME", "SHAPE@TRUECENTROID"))

## Loading required namespace: tibble

## # A tibble: 58 × 3
##    `OID@` NAME          `SHAPE@TRUECENTROID`
##     <int> <chr>         <list>              
##  1      0 Sierra        <list [2]>          
##  2      1 Sacramento    <list [2]>          
##  3      2 Santa Barbara <list [2]>          
##  4      3 Calaveras     <list [2]>          
##  5      4 Ventura       <list [2]>          
##  6      5 Los Angeles   <list [2]>          
##  7      6 Sonoma        <list [2]>          
##  8      7 Kings         <list [2]>          
##  9      8 San Diego     <list [2]>          
## 10      9 Placer        <list [2]>          
## # ℹ 48 more rows
…
